^C:\USERS\DANYM_000\DOCUMENTS\VISUAL STUDIO 2013\PROJECTS\ESTRUCTURAS\SOLUTIONCONCESIONARIO\LIBRERIA\CLIENTE.C|C:\USERS\DANYM_000\DOCUMENTS\VISUAL STUDIO 2013\PROJECTS\ESTRUCTURAS\SOLUTIONCONCESIONARIO\LIBRERIA\CONCESIONARIO.C|C:\USERS\DANYM_000\DOCUMENTS\VISUAL STUDIO 2013\PROJECTS\ESTRUCTURAS\SOLUTIONCONCESIONARIO\LIBRERIA\LISTAVEHICULOS.C|C:\USERS\DANYM_000\DOCUMENTS\VISUAL STUDIO 2013\PROJECTS\ESTRUCTURAS\SOLUTIONCONCESIONARIO\LIBRERIA\TALLER.C|C:\USERS\DANYM_000\DOCUMENTS\VISUAL STUDIO 2013\PROJECTS\ESTRUCTURAS\SOLUTIONCONCESIONARIO\LIBRERIA\VEHICULO.C
C:\USERS\DANYM_000\DOCUMENTS\VISUAL STUDIO 2013\PROJECTS\ESTRUCTURAS\SOLUTIONCONCESIONARIO\LIBRERIA\DEBUG\VC120.PDB
C:\USERS\DANYM_000\DOCUMENTS\VISUAL STUDIO 2013\PROJECTS\ESTRUCTURAS\SOLUTIONCONCESIONARIO\LIBRERIA\DEBUG\VC120.IDB
C:\USERS\DANYM_000\DOCUMENTS\VISUAL STUDIO 2013\PROJECTS\ESTRUCTURAS\SOLUTIONCONCESIONARIO\LIBRERIA\DEBUG\CLIENTE.OBJ
C:\USERS\DANYM_000\DOCUMENTS\VISUAL STUDIO 2013\PROJECTS\ESTRUCTURAS\SOLUTIONCONCESIONARIO\LIBRERIA\DEBUG\CONCESIONARIO.OBJ
C:\USERS\DANYM_000\DOCUMENTS\VISUAL STUDIO 2013\PROJECTS\ESTRUCTURAS\SOLUTIONCONCESIONARIO\LIBRERIA\DEBUG\LISTAVEHICULOS.OBJ
C:\USERS\DANYM_000\DOCUMENTS\VISUAL STUDIO 2013\PROJECTS\ESTRUCTURAS\SOLUTIONCONCESIONARIO\LIBRERIA\DEBUG\TALLER.OBJ
C:\USERS\DANYM_000\DOCUMENTS\VISUAL STUDIO 2013\PROJECTS\ESTRUCTURAS\SOLUTIONCONCESIONARIO\LIBRERIA\DEBUG\VEHICULO.OBJ
^C:\USERS\DANYM_000\DOCUMENTS\VISUAL STUDIO 2013\PROJECTS\ESTRUCTURAS\SOLUTIONCONCESIONARIO\LIBRERIA\CLIENTE.C
C:\USERS\DANYM_000\DOCUMENTS\VISUAL STUDIO 2013\PROJECTS\ESTRUCTURAS\SOLUTIONCONCESIONARIO\LIBRERIA\DEBUG\VC120.PDB
^C:\USERS\DANYM_000\DOCUMENTS\VISUAL STUDIO 2013\PROJECTS\ESTRUCTURAS\SOLUTIONCONCESIONARIO\LIBRERIA\CONCESIONARIO.C
C:\USERS\DANYM_000\DOCUMENTS\VISUAL STUDIO 2013\PROJECTS\ESTRUCTURAS\SOLUTIONCONCESIONARIO\LIBRERIA\DEBUG\VC120.PDB
^C:\USERS\DANYM_000\DOCUMENTS\VISUAL STUDIO 2013\PROJECTS\ESTRUCTURAS\SOLUTIONCONCESIONARIO\LIBRERIA\LISTAVEHICULOS.C
C:\USERS\DANYM_000\DOCUMENTS\VISUAL STUDIO 2013\PROJECTS\ESTRUCTURAS\SOLUTIONCONCESIONARIO\LIBRERIA\DEBUG\VC120.PDB
^C:\USERS\DANYM_000\DOCUMENTS\VISUAL STUDIO 2013\PROJECTS\ESTRUCTURAS\SOLUTIONCONCESIONARIO\LIBRERIA\TALLER.C
C:\USERS\DANYM_000\DOCUMENTS\VISUAL STUDIO 2013\PROJECTS\ESTRUCTURAS\SOLUTIONCONCESIONARIO\LIBRERIA\DEBUG\VC120.PDB
C:\USERS\DANYM_000\DOCUMENTS\VISUAL STUDIO 2013\PROJECTS\ESTRUCTURAS\SOLUTIONCONCESIONARIO\LIBRERIA\DEBUG\VC120.IDB
C:\USERS\DANYM_000\DOCUMENTS\VISUAL STUDIO 2013\PROJECTS\ESTRUCTURAS\SOLUTIONCONCESIONARIO\LIBRERIA\DEBUG\TALLER.OBJ
^C:\USERS\DANYM_000\DOCUMENTS\VISUAL STUDIO 2013\PROJECTS\ESTRUCTURAS\SOLUTIONCONCESIONARIO\LIBRERIA\VEHICULO.C
C:\USERS\DANYM_000\DOCUMENTS\VISUAL STUDIO 2013\PROJECTS\ESTRUCTURAS\SOLUTIONCONCESIONARIO\LIBRERIA\DEBUG\VC120.PDB
^C:\USERS\DANYM_000\DOCUMENTS\VISUAL STUDIO 2013\PROJECTS\ESTRUCTURAS\SOLUTIONCONCESIONARIO\LIBRERIA\CONCESIONARIO.C|C:\USERS\DANYM_000\DOCUMENTS\VISUAL STUDIO 2013\PROJECTS\ESTRUCTURAS\SOLUTIONCONCESIONARIO\LIBRERIA\TALLER.C
C:\USERS\DANYM_000\DOCUMENTS\VISUAL STUDIO 2013\PROJECTS\ESTRUCTURAS\SOLUTIONCONCESIONARIO\LIBRERIA\DEBUG\VC120.PDB
C:\USERS\DANYM_000\DOCUMENTS\VISUAL STUDIO 2013\PROJECTS\ESTRUCTURAS\SOLUTIONCONCESIONARIO\LIBRERIA\DEBUG\VC120.IDB
C:\USERS\DANYM_000\DOCUMENTS\VISUAL STUDIO 2013\PROJECTS\ESTRUCTURAS\SOLUTIONCONCESIONARIO\LIBRERIA\DEBUG\CONCESIONARIO.OBJ
C:\USERS\DANYM_000\DOCUMENTS\VISUAL STUDIO 2013\PROJECTS\ESTRUCTURAS\SOLUTIONCONCESIONARIO\LIBRERIA\DEBUG\TALLER.OBJ
