^C:\USERS\DANYM_000\DOCUMENTS\VISUAL STUDIO 2013\PROJECTS\ESTRUCTURAS\SOLUTIONCONCESIONARIO\CONCESIONARIO\MAIN.C
C:\USERS\DANYM_000\DOCUMENTS\VISUAL STUDIO 2013\PROJECTS\ESTRUCTURAS\SOLUTIONCONCESIONARIO\CONCESIONARIO\DEBUG\VC120.PDB
C:\USERS\DANYM_000\DOCUMENTS\VISUAL STUDIO 2013\PROJECTS\ESTRUCTURAS\SOLUTIONCONCESIONARIO\CONCESIONARIO\DEBUG\VC120.IDB
C:\USERS\DANYM_000\DOCUMENTS\VISUAL STUDIO 2013\PROJECTS\ESTRUCTURAS\SOLUTIONCONCESIONARIO\CONCESIONARIO\DEBUG\MAIN.OBJ
