^C:\USERS\DANYM_000\DOCUMENTS\VISUAL STUDIO 2013\PROJECTS\ESTRUCTURAS\SOLUTIONCONCESIONARIO\CONCESIONARIO\DEBUG\MAIN.OBJ
C:\USERS\DANYM_000\DOCUMENTS\VISUAL STUDIO 2013\PROJECTS\ESTRUCTURAS\SOLUTIONCONCESIONARIO\DEBUG\CONCESIONARIO.ILK
C:\USERS\DANYM_000\DOCUMENTS\VISUAL STUDIO 2013\PROJECTS\ESTRUCTURAS\SOLUTIONCONCESIONARIO\DEBUG\CONCESIONARIO.EXE
C:\USERS\DANYM_000\DOCUMENTS\VISUAL STUDIO 2013\PROJECTS\ESTRUCTURAS\SOLUTIONCONCESIONARIO\DEBUG\CONCESIONARIO.PDB
